{
  "meta": {
    "limit": 10,
    "next": "/api/v1/goals/progress/?username=blturner&format=json&limit=10&offset=20&goal__user__username=blturner&api_key=1",
    "offset": 10,
    "previous": "/api/v1/goals/progress/?username=blturner&format=json&limit=10&offset=0&goal__user__username=blturner&api_key=1",
    "total_count": 81
  },
  "objects": [
    {
      "amount": 2813,
      "amount_read": 708,
      "book_id": 18084,
      "created": "2014-04-14T05:24:13",
      "date_read": "2014-04-14T05:24:13",
      "emotions": [],
      "goal": {
        "book_edition": {
          "binding": "Paperback",
          "book": {
            "authors": [
              {
                "created": "2008-10-08T15:00:11",
                "first_name": "Suzanne",
                "full_name": "Suzanne Collins",
                "id": 8350,
                "last_name": "Collins",
                "middle_name": "",
                "modified": "2008-10-08T15:00:11",
                "resource_uri": "/api/v1/books/author/8350/",
                "timesince": "October 8, 2008",
                "type": "books.author"
              }
            ],
            "created": "2008-11-03T22:04:22",
            "id": 18084,
            "modified": "2012-08-23T16:08:53",
            "resource_uri": "/api/v1/books/book/18084/",
            "timesince": "November 3, 2008",
            "title": "Hunger Games",
            "type": "books.book"
          },
          "cover": "http://s3.amazonaws.com:80/media.readernaut.com/book_covers%2F113597.jpg",
          "created": "2010-06-30T09:57:45",
          "dewey": "",
          "ean": "",
          "edition_title": "",
          "id": 113597,
          "isbn": "0439023521",
          "language": "",
          "modified": "2012-10-02T15:08:17",
          "pages": 384,
          "prefix": "",
          "published": "2010-07-03",
          "resource_uri": "/api/v1/books/edition/113597/",
          "subtitle": "Book 1",
          "timesince": "June 30, 2010",
          "title": " Hunger Games",
          "type": "books.edition"
        },
        "created": "2014-03-28T05:16:03",
        "current_amount": 3803,
        "goal_type": 3,
        "id": 167615,
        "modified": "2014-04-21T00:53:26",
        "resource_uri": "/api/v1/goals/goal/167615/",
        "timesince": "March 28, 2014",
        "total": 3803,
        "type": "goals.goal",
        "user": {
          "date_joined": "2008-08-01T09:41:35",
          "first_name": "Ben",
          "id": 7,
          "last_name": "Turner",
          "mugshot": "http://s3.amazonaws.com:80/media.readernaut.com/mugshots%2F6_t200x200.jpg",
          "resource_uri": "/api/v1/users/user/7/",
          "timesince": "",
          "type": "users.user",
          "username": "blturner"
        }
      },
      "id": 91160,
      "modified": "2014-04-14T05:24:13",
      "percent": 74.0,
      "resource_uri": "/api/v1/goals/progress/91160/",
      "source": "",
      "timesince": "April 14, 2014",
      "type": "goals.progress"
    },
    {
      "amount": 2105,
      "amount_read": 1227,
      "book_id": 18084,
      "created": "2014-04-07T05:57:30",
      "date_read": "2014-04-07T05:57:30",
      "emotions": [],
      "goal": {
        "book_edition": {
          "binding": "Paperback",
          "book": {
            "authors": [
              {
                "created": "2008-10-08T15:00:11",
                "first_name": "Suzanne",
                "full_name": "Suzanne Collins",
                "id": 8350,
                "last_name": "Collins",
                "middle_name": "",
                "modified": "2008-10-08T15:00:11",
                "resource_uri": "/api/v1/books/author/8350/",
                "timesince": "October 8, 2008",
                "type": "books.author"
              }
            ],
            "created": "2008-11-03T22:04:22",
            "id": 18084,
            "modified": "2012-08-23T16:08:53",
            "resource_uri": "/api/v1/books/book/18084/",
            "timesince": "November 3, 2008",
            "title": "Hunger Games",
            "type": "books.book"
          },
          "cover": "http://s3.amazonaws.com:80/media.readernaut.com/book_covers%2F113597.jpg",
          "created": "2010-06-30T09:57:45",
          "dewey": "",
          "ean": "",
          "edition_title": "",
          "id": 113597,
          "isbn": "0439023521",
          "language": "",
          "modified": "2012-10-02T15:08:17",
          "pages": 384,
          "prefix": "",
          "published": "2010-07-03",
          "resource_uri": "/api/v1/books/edition/113597/",
          "subtitle": "Book 1",
          "timesince": "June 30, 2010",
          "title": " Hunger Games",
          "type": "books.edition"
        },
        "created": "2014-03-28T05:16:03",
        "current_amount": 3803,
        "goal_type": 3,
        "id": 167615,
        "modified": "2014-04-21T00:53:26",
        "resource_uri": "/api/v1/goals/goal/167615/",
        "timesince": "March 28, 2014",
        "total": 3803,
        "type": "goals.goal",
        "user": {
          "date_joined": "2008-08-01T09:41:35",
          "first_name": "Ben",
          "id": 7,
          "last_name": "Turner",
          "mugshot": "http://s3.amazonaws.com:80/media.readernaut.com/mugshots%2F6_t200x200.jpg",
          "resource_uri": "/api/v1/users/user/7/",
          "timesince": "",
          "type": "users.user",
          "username": "blturner"
        }
      },
      "id": 91129,
      "modified": "2014-04-07T05:57:30",
      "percent": 55.0,
      "resource_uri": "/api/v1/goals/progress/91129/",
      "source": "",
      "timesince": "April 7, 2014",
      "type": "goals.progress"
    },
    {
      "amount": 91,
      "amount_read": 91,
      "book_id": 116639,
      "created": "2014-03-29T00:38:10",
      "date_read": "2014-03-29T00:38:10",
      "emotions": [],
      "goal": {
        "book_edition": {
          "binding": "Paperback",
          "book": {
            "authors": [
              {
                "created": "2011-02-12T22:04:25",
                "first_name": "Jane",
                "full_name": "Jane McGonigal",
                "id": 64516,
                "last_name": "McGonigal",
                "middle_name": "",
                "modified": "2011-02-12T22:04:25",
                "resource_uri": "/api/v1/books/author/64516/",
                "timesince": "February 12, 2011",
                "type": "books.author"
              }
            ],
            "created": "2011-02-12T22:04:25",
            "id": 116639,
            "modified": "2011-02-12T22:04:25",
            "resource_uri": "/api/v1/books/book/116639/",
            "timesince": "February 12, 2011",
            "title": "Reality Is Broken",
            "type": "books.book"
          },
          "cover": "http://s3.amazonaws.com:80/media.readernaut.com/book_covers%2F146922.jpg",
          "created": "2011-12-01T21:33:40",
          "dewey": "",
          "ean": "9780143120612",
          "edition_title": "",
          "id": 146922,
          "isbn": "0143120611",
          "language": "",
          "modified": "2011-12-01T21:33:40",
          "pages": 416,
          "prefix": "",
          "published": "2011-12-27",
          "resource_uri": "/api/v1/books/edition/146922/",
          "subtitle": "Why Games Make Us Better and How They Can Change the World",
          "timesince": "December 1, 2011",
          "title": " Reality Is Broken",
          "type": "books.edition"
        },
        "created": "2014-03-29T00:37:57",
        "current_amount": 91,
        "goal_type": 1,
        "id": 167622,
        "modified": "2014-03-29T00:38:10",
        "resource_uri": "/api/v1/goals/goal/167622/",
        "timesince": "March 29, 2014",
        "total": 649,
        "type": "goals.goal",
        "user": {
          "date_joined": "2008-08-01T09:41:35",
          "first_name": "Ben",
          "id": 7,
          "last_name": "Turner",
          "mugshot": "http://s3.amazonaws.com:80/media.readernaut.com/mugshots%2F6_t200x200.jpg",
          "resource_uri": "/api/v1/users/user/7/",
          "timesince": "",
          "type": "users.user",
          "username": "blturner"
        }
      },
      "id": 91065,
      "modified": "2014-03-29T00:38:10",
      "percent": 14.0,
      "resource_uri": "/api/v1/goals/progress/91065/",
      "source": "",
      "timesince": "March 29, 2014",
      "type": "goals.progress"
    },
    {
      "amount": 878,
      "amount_read": 128,
      "book_id": 18084,
      "created": "2014-03-28T05:36:22",
      "date_read": "2014-03-28T05:36:22",
      "emotions": [],
      "goal": {
        "book_edition": {
          "binding": "Paperback",
          "book": {
            "authors": [
              {
                "created": "2008-10-08T15:00:11",
                "first_name": "Suzanne",
                "full_name": "Suzanne Collins",
                "id": 8350,
                "last_name": "Collins",
                "middle_name": "",
                "modified": "2008-10-08T15:00:11",
                "resource_uri": "/api/v1/books/author/8350/",
                "timesince": "October 8, 2008",
                "type": "books.author"
              }
            ],
            "created": "2008-11-03T22:04:22",
            "id": 18084,
            "modified": "2012-08-23T16:08:53",
            "resource_uri": "/api/v1/books/book/18084/",
            "timesince": "November 3, 2008",
            "title": "Hunger Games",
            "type": "books.book"
          },
          "cover": "http://s3.amazonaws.com:80/media.readernaut.com/book_covers%2F113597.jpg",
          "created": "2010-06-30T09:57:45",
          "dewey": "",
          "ean": "",
          "edition_title": "",
          "id": 113597,
          "isbn": "0439023521",
          "language": "",
          "modified": "2012-10-02T15:08:17",
          "pages": 384,
          "prefix": "",
          "published": "2010-07-03",
          "resource_uri": "/api/v1/books/edition/113597/",
          "subtitle": "Book 1",
          "timesince": "June 30, 2010",
          "title": " Hunger Games",
          "type": "books.edition"
        },
        "created": "2014-03-28T05:16:03",
        "current_amount": 3803,
        "goal_type": 3,
        "id": 167615,
        "modified": "2014-04-21T00:53:26",
        "resource_uri": "/api/v1/goals/goal/167615/",
        "timesince": "March 28, 2014",
        "total": 3803,
        "type": "goals.goal",
        "user": {
          "date_joined": "2008-08-01T09:41:35",
          "first_name": "Ben",
          "id": 7,
          "last_name": "Turner",
          "mugshot": "http://s3.amazonaws.com:80/media.readernaut.com/mugshots%2F6_t200x200.jpg",
          "resource_uri": "/api/v1/users/user/7/",
          "timesince": "",
          "type": "users.user",
          "username": "blturner"
        }
      },
      "id": 91055,
      "modified": "2014-03-28T05:36:22",
      "percent": 23.0,
      "resource_uri": "/api/v1/goals/progress/91055/",
      "source": "",
      "timesince": "March 28, 2014",
      "type": "goals.progress"
    },
    {
      "amount": 750,
      "amount_read": 750,
      "book_id": 18084,
      "created": "2014-03-28T05:16:25",
      "date_read": "2014-03-28T05:16:25",
      "emotions": [],
      "goal": {
        "book_edition": {
          "binding": "Paperback",
          "book": {
            "authors": [
              {
                "created": "2008-10-08T15:00:11",
                "first_name": "Suzanne",
                "full_name": "Suzanne Collins",
                "id": 8350,
                "last_name": "Collins",
                "middle_name": "",
                "modified": "2008-10-08T15:00:11",
                "resource_uri": "/api/v1/books/author/8350/",
                "timesince": "October 8, 2008",
                "type": "books.author"
              }
            ],
            "created": "2008-11-03T22:04:22",
            "id": 18084,
            "modified": "2012-08-23T16:08:53",
            "resource_uri": "/api/v1/books/book/18084/",
            "timesince": "November 3, 2008",
            "title": "Hunger Games",
            "type": "books.book"
          },
          "cover": "http://s3.amazonaws.com:80/media.readernaut.com/book_covers%2F113597.jpg",
          "created": "2010-06-30T09:57:45",
          "dewey": "",
          "ean": "",
          "edition_title": "",
          "id": 113597,
          "isbn": "0439023521",
          "language": "",
          "modified": "2012-10-02T15:08:17",
          "pages": 384,
          "prefix": "",
          "published": "2010-07-03",
          "resource_uri": "/api/v1/books/edition/113597/",
          "subtitle": "Book 1",
          "timesince": "June 30, 2010",
          "title": " Hunger Games",
          "type": "books.edition"
        },
        "created": "2014-03-28T05:16:03",
        "current_amount": 3803,
        "goal_type": 3,
        "id": 167615,
        "modified": "2014-04-21T00:53:26",
        "resource_uri": "/api/v1/goals/goal/167615/",
        "timesince": "March 28, 2014",
        "total": 3803,
        "type": "goals.goal",
        "user": {
          "date_joined": "2008-08-01T09:41:35",
          "first_name": "Ben",
          "id": 7,
          "last_name": "Turner",
          "mugshot": "http://s3.amazonaws.com:80/media.readernaut.com/mugshots%2F6_t200x200.jpg",
          "resource_uri": "/api/v1/users/user/7/",
          "timesince": "",
          "type": "users.user",
          "username": "blturner"
        }
      },
      "id": 91054,
      "modified": "2014-03-28T05:16:25",
      "percent": 20.0,
      "resource_uri": "/api/v1/goals/progress/91054/",
      "source": "",
      "timesince": "March 28, 2014",
      "type": "goals.progress"
    },
    {
      "amount": 38,
      "amount_read": 38,
      "book_id": 148,
      "created": "2014-01-23T04:21:48",
      "date_read": "2014-01-23T04:21:48",
      "emotions": [],
      "goal": {
        "book_edition": {
          "binding": "Hardcover",
          "book": {
            "authors": [
              {
                "created": "2008-08-01T11:57:06",
                "first_name": "Bill",
                "full_name": "Bill Moggridge",
                "id": 118,
                "last_name": "Moggridge",
                "middle_name": "",
                "modified": "2009-05-27T22:32:07",
                "resource_uri": "/api/v1/books/author/118/",
                "timesince": "August 1, 2008",
                "type": "books.author"
              }
            ],
            "created": "2008-08-01T11:57:06",
            "id": 148,
            "modified": "2012-02-12T14:24:03",
            "resource_uri": "/api/v1/books/book/148/",
            "timesince": "August 1, 2008",
            "title": "Designing Interactions",
            "type": "books.book"
          },
          "cover": "http://s3.amazonaws.com:80/media.readernaut.com/book_covers%2F145.jpg",
          "created": "2008-08-01T11:57:06",
          "dewey": "004.019",
          "ean": "9780262134743",
          "edition_title": "1",
          "id": 145,
          "isbn": "0262134748",
          "language": "",
          "modified": "2009-06-03T19:31:23",
          "pages": 766,
          "prefix": "",
          "published": "2007-10-01",
          "resource_uri": "/api/v1/books/edition/145/",
          "subtitle": "",
          "timesince": "August 1, 2008",
          "title": " Designing Interactions",
          "type": "books.edition"
        },
        "created": "2014-01-23T04:21:33",
        "current_amount": 38,
        "goal_type": 1,
        "id": 166263,
        "modified": "2014-01-23T04:21:48",
        "resource_uri": "/api/v1/goals/goal/166263/",
        "timesince": "January 23, 2014",
        "total": 735,
        "type": "goals.goal",
        "user": {
          "date_joined": "2008-08-01T09:41:35",
          "first_name": "Ben",
          "id": 7,
          "last_name": "Turner",
          "mugshot": "http://s3.amazonaws.com:80/media.readernaut.com/mugshots%2F6_t200x200.jpg",
          "resource_uri": "/api/v1/users/user/7/",
          "timesince": "",
          "type": "users.user",
          "username": "blturner"
        }
      },
      "id": 90541,
      "modified": "2014-01-23T04:21:48",
      "percent": 5.0,
      "resource_uri": "/api/v1/goals/progress/90541/",
      "source": "",
      "timesince": "January 23, 2014",
      "type": "goals.progress"
    },
    {
      "amount": 10,
      "amount_read": 2,
      "book_id": 126013,
      "created": "2013-05-08T01:09:53",
      "date_read": "2013-05-08T01:09:53",
      "emotions": [
        {
          "content_type": "/api/v1/contrib/contenttype/51/",
          "created": "2013-11-13T15:53:02",
          "emotion": 3,
          "id": 749,
          "modified": "2013-11-13T15:53:02",
          "object_id": 88354,
          "resource_uri": "/api/v1/emotions/emotion/749/",
          "timesince": "November 13, 2013",
          "type": "emotions.emotion",
          "user": {
            "date_joined": "2008-08-01T10:04:08",
            "first_name": "Julia",
            "id": 8,
            "last_name": "Elman",
            "mugshot": "http://s3.amazonaws.com:80/media.readernaut.com/mugshots%2F7_t200x200.jpg",
            "resource_uri": "/api/v1/users/user/8/",
            "timesince": "",
            "type": "users.user",
            "username": "juliae"
          }
        }
      ],
      "goal": {
        "book_edition": {
          "binding": "Paperback",
          "book": {
            "authors": [
              {
                "created": "2012-05-07T21:40:45",
                "first_name": "Mike",
                "full_name": "Mike Monteiro",
                "id": 69476,
                "last_name": "Monteiro",
                "middle_name": "",
                "modified": "2012-05-07T21:40:45",
                "resource_uri": "/api/v1/books/author/69476/",
                "timesince": "May 7, 2012",
                "type": "books.author"
              }
            ],
            "created": "2012-05-07T21:40:45",
            "id": 126013,
            "modified": "2012-05-07T21:40:45",
            "resource_uri": "/api/v1/books/book/126013/",
            "timesince": "May 7, 2012",
            "title": "Design Is a Job",
            "type": "books.book"
          },
          "cover": "http://s3.amazonaws.com:80/media.readernaut.com/book_covers%2Fnaut_FiO0vmxx.jpg",
          "created": "2012-05-07T21:40:45",
          "dewey": "",
          "ean": "9781937557041",
          "edition_title": "",
          "id": 149685,
          "isbn": "1937557049",
          "language": "",
          "modified": "2012-10-14T14:20:49",
          "pages": 0,
          "prefix": "",
          "published": null,
          "resource_uri": "/api/v1/books/edition/149685/",
          "subtitle": "",
          "timesince": "May 7, 2012",
          "title": " Design Is a Job",
          "type": "books.edition"
        },
        "created": "2012-10-14T14:19:41",
        "current_amount": 10,
        "goal_type": 2,
        "id": 30279,
        "modified": "2013-05-08T01:09:54",
        "resource_uri": "/api/v1/goals/goal/30279/",
        "timesince": "October 14, 2012",
        "total": 10,
        "type": "goals.goal",
        "user": {
          "date_joined": "2008-08-01T09:41:35",
          "first_name": "Ben",
          "id": 7,
          "last_name": "Turner",
          "mugshot": "http://s3.amazonaws.com:80/media.readernaut.com/mugshots%2F6_t200x200.jpg",
          "resource_uri": "/api/v1/users/user/7/",
          "timesince": "",
          "type": "users.user",
          "username": "blturner"
        }
      },
      "id": 88354,
      "modified": "2013-05-08T01:09:53",
      "percent": 100.0,
      "resource_uri": "/api/v1/goals/progress/88354/",
      "source": "",
      "timesince": "May 8, 2013",
      "type": "goals.progress"
    },
    {
      "amount": 752,
      "amount_read": 752,
      "book_id": 18713,
      "created": "2013-01-25T17:59:18",
      "date_read": "2013-01-25T17:59:18",
      "emotions": [],
      "goal": {
        "book_edition": {
          "binding": "Mass Market Paperback",
          "book": {
            "authors": [
              {
                "created": "2008-10-10T11:16:38",
                "first_name": "Stieg",
                "full_name": "Stieg Larsson",
                "id": 8658,
                "last_name": "Larsson",
                "middle_name": "",
                "modified": "2008-10-10T11:16:38",
                "resource_uri": "/api/v1/books/author/8658/",
                "timesince": "October 10, 2008",
                "type": "books.author"
              }
            ],
            "created": "2008-11-05T03:08:03",
            "id": 18713,
            "modified": "2011-06-28T22:01:48",
            "resource_uri": "/api/v1/books/book/18713/",
            "timesince": "November 5, 2008",
            "title": "Girl Who Played with Fire",
            "type": "books.book"
          },
          "cover": "http://s3.amazonaws.com:80/media.readernaut.com/book_covers%2F146436.jpg",
          "created": "2011-11-10T13:34:17",
          "dewey": "",
          "ean": "9780307949509",
          "edition_title": "",
          "id": 146436,
          "isbn": "0307949508",
          "language": "",
          "modified": "2012-08-27T15:46:38",
          "pages": 752,
          "prefix": "The",
          "published": "2011-11-22",
          "resource_uri": "/api/v1/books/edition/146436/",
          "subtitle": "",
          "timesince": "November 10, 2011",
          "title": "The Girl Who Played with Fire",
          "type": "books.edition"
        },
        "created": "2012-11-14T03:48:23",
        "current_amount": 752,
        "goal_type": 3,
        "id": 163133,
        "modified": "2013-01-25T17:59:19",
        "resource_uri": "/api/v1/goals/goal/163133/",
        "timesince": "November 14, 2012",
        "total": 752,
        "type": "goals.goal",
        "user": {
          "date_joined": "2008-08-01T09:41:35",
          "first_name": "Ben",
          "id": 7,
          "last_name": "Turner",
          "mugshot": "http://s3.amazonaws.com:80/media.readernaut.com/mugshots%2F6_t200x200.jpg",
          "resource_uri": "/api/v1/users/user/7/",
          "timesince": "",
          "type": "users.user",
          "username": "blturner"
        }
      },
      "id": 87338,
      "modified": "2013-01-25T17:59:18",
      "percent": 100.0,
      "resource_uri": "/api/v1/goals/progress/87338/",
      "source": "",
      "timesince": "January 25, 2013",
      "type": "goals.progress"
    },
    {
      "amount": 8,
      "amount_read": 2,
      "book_id": 126013,
      "created": "2012-11-03T02:33:20",
      "date_read": "2012-11-03T02:33:20",
      "emotions": [],
      "goal": {
        "book_edition": {
          "binding": "Paperback",
          "book": {
            "authors": [
              {
                "created": "2012-05-07T21:40:45",
                "first_name": "Mike",
                "full_name": "Mike Monteiro",
                "id": 69476,
                "last_name": "Monteiro",
                "middle_name": "",
                "modified": "2012-05-07T21:40:45",
                "resource_uri": "/api/v1/books/author/69476/",
                "timesince": "May 7, 2012",
                "type": "books.author"
              }
            ],
            "created": "2012-05-07T21:40:45",
            "id": 126013,
            "modified": "2012-05-07T21:40:45",
            "resource_uri": "/api/v1/books/book/126013/",
            "timesince": "May 7, 2012",
            "title": "Design Is a Job",
            "type": "books.book"
          },
          "cover": "http://s3.amazonaws.com:80/media.readernaut.com/book_covers%2Fnaut_FiO0vmxx.jpg",
          "created": "2012-05-07T21:40:45",
          "dewey": "",
          "ean": "9781937557041",
          "edition_title": "",
          "id": 149685,
          "isbn": "1937557049",
          "language": "",
          "modified": "2012-10-14T14:20:49",
          "pages": 0,
          "prefix": "",
          "published": null,
          "resource_uri": "/api/v1/books/edition/149685/",
          "subtitle": "",
          "timesince": "May 7, 2012",
          "title": " Design Is a Job",
          "type": "books.edition"
        },
        "created": "2012-10-14T14:19:41",
        "current_amount": 10,
        "goal_type": 2,
        "id": 30279,
        "modified": "2013-05-08T01:09:54",
        "resource_uri": "/api/v1/goals/goal/30279/",
        "timesince": "October 14, 2012",
        "total": 10,
        "type": "goals.goal",
        "user": {
          "date_joined": "2008-08-01T09:41:35",
          "first_name": "Ben",
          "id": 7,
          "last_name": "Turner",
          "mugshot": "http://s3.amazonaws.com:80/media.readernaut.com/mugshots%2F6_t200x200.jpg",
          "resource_uri": "/api/v1/users/user/7/",
          "timesince": "",
          "type": "users.user",
          "username": "blturner"
        }
      },
      "id": 85995,
      "modified": "2012-11-03T02:33:20",
      "percent": 80.0,
      "resource_uri": "/api/v1/goals/progress/85995/",
      "source": "",
      "timesince": "November 3, 2012",
      "type": "goals.progress"
    },
    {
      "amount": 280,
      "amount_read": 125,
      "book_id": 48723,
      "created": "2012-11-03T02:28:54",
      "date_read": "2012-11-03T02:28:54",
      "emotions": [],
      "goal": {
        "book_edition": {
          "binding": "Unknown Binding",
          "book": {
            "authors": [
              {
                "created": "2009-02-03T23:34:08",
                "first_name": "Doug",
                "full_name": "Doug Moench",
                "id": 19898,
                "last_name": "Moench",
                "middle_name": "",
                "modified": "2009-02-03T23:34:08",
                "resource_uri": "/api/v1/books/author/19898/",
                "timesince": "February 3, 2009",
                "type": "books.author"
              }
            ],
            "created": "2009-05-29T01:54:55",
            "id": 48723,
            "modified": "2011-01-02T19:18:38",
            "resource_uri": "/api/v1/books/book/48723/",
            "timesince": "May 29, 2009",
            "title": "Batman",
            "type": "books.book"
          },
          "cover": "http://s3.amazonaws.com:80/media.readernaut.com/book_covers%2Fnaut_FiOzOoJL.jpg",
          "created": "2012-10-14T14:22:41",
          "dewey": "",
          "ean": "",
          "edition_title": "",
          "id": 151964,
          "isbn": "B0083OX6SI",
          "language": "",
          "modified": "2012-10-14T14:23:08",
          "pages": 0,
          "prefix": "",
          "published": null,
          "resource_uri": "/api/v1/books/edition/151964/",
          "subtitle": "Knightfall, Part Two: Who Rules the Night [Paperback]",
          "timesince": "October 14, 2012",
          "title": " Batman",
          "type": "books.edition"
        },
        "created": "2012-10-14T14:22:42",
        "current_amount": 280,
        "goal_type": 1,
        "id": 30280,
        "modified": "2012-11-03T02:28:55",
        "resource_uri": "/api/v1/goals/goal/30280/",
        "timesince": "October 14, 2012",
        "total": 280,
        "type": "goals.goal",
        "user": {
          "date_joined": "2008-08-01T09:41:35",
          "first_name": "Ben",
          "id": 7,
          "last_name": "Turner",
          "mugshot": "http://s3.amazonaws.com:80/media.readernaut.com/mugshots%2F6_t200x200.jpg",
          "resource_uri": "/api/v1/users/user/7/",
          "timesince": "",
          "type": "users.user",
          "username": "blturner"
        }
      },
      "id": 85994,
      "modified": "2012-11-03T02:28:54",
      "percent": 100.0,
      "resource_uri": "/api/v1/goals/progress/85994/",
      "source": "",
      "timesince": "November 3, 2012",
      "type": "goals.progress"
    }
  ]
}