{
  "page": "1",
  "per_page": 15,
  "pages": 4,
  "total": 50,
  "shots": [
    {
      "id": 1453254,
      "title": "Blubber Brothers",
      "height": 600,
      "width": 800,
      "likes_count": 84,
      "comments_count": 6,
      "rebounds_count": 0,
      "url": "http://dribbble.com/shots/1453254-Blubber-Brothers",
      "short_url": "http://drbl.in/krxk",
      "views_count": 597,
      "rebound_source_id": null,
      "image_url": "http://d13yacurqjgara.cloudfront.net/users/175166/screenshots/1453254/icefishingdribbb.jpg",
      "image_teaser_url": "http://d13yacurqjgara.cloudfront.net/users/175166/screenshots/1453254/icefishingdribbb_teaser.jpg",
      "image_400_url": "http://d13yacurqjgara.cloudfront.net/users/175166/screenshots/1453254/icefishingdribbb_1x.jpg",
      "player": {
        "id": 175166,
        "name": "Burnt Toast Creative",
        "location": "Hamilton, Ontario, Canada",
        "followers_count": 1035,
        "draftees_count": 0,
        "likes_count": 1110,
        "likes_received_count": 3555,
        "comments_count": 308,
        "comments_received_count": 263,
        "rebounds_count": 5,
        "rebounds_received_count": 4,
        "url": "http://dribbble.com/BurntToast",
        "avatar_url": "http://d13yacurqjgara.cloudfront.net/users/175166/avatars/normal/bt_dribbb.jpg?1372107666",
        "username": "BurntToast",
        "twitter_screen_name": null,
        "website_url": "http://burnttoastcreative.com/",
        "drafted_by_player_id": 39,
        "shots_count": 63,
        "following_count": 180,
        "created_at": "2012/07/11 15:39:25 -0400"
      },
      "created_at": "2014/03/06 21:21:07 -0500"
    },
    {
      "id": 1426591,
      "title": "trinket course page",
      "height": 600,
      "width": 800,
      "likes_count": 1,
      "comments_count": 1,
      "rebounds_count": 0,
      "url": "http://dribbble.com/shots/1426591-trinket-course-page",
      "short_url": "http://drbl.in/khEx",
      "views_count": 35,
      "rebound_source_id": null,
      "image_url": "http://d13yacurqjgara.cloudfront.net/users/145437/screenshots/1426591/trinket-dribbble.png",
      "image_teaser_url": "http://d13yacurqjgara.cloudfront.net/users/145437/screenshots/1426591/trinket-dribbble_teaser.png",
      "image_400_url": "http://d13yacurqjgara.cloudfront.net/users/145437/screenshots/1426591/trinket-dribbble_1x.png",
      "player": {
        "id": 145437,
        "name": "Julia Elman",
        "location": "North Carolina",
        "followers_count": 29,
        "draftees_count": 0,
        "likes_count": 60,
        "likes_received_count": 105,
        "comments_count": 11,
        "comments_received_count": 18,
        "rebounds_count": 1,
        "rebounds_received_count": 1,
        "url": "http://dribbble.com/juliaelman",
        "avatar_url": "http://d13yacurqjgara.cloudfront.net/users/145437/avatars/normal/julia-elman.jpg?1353293890",
        "username": "juliaelman",
        "twitter_screen_name": "juliaelman",
        "website_url": "http://juliaelman.com/",
        "drafted_by_player_id": 878,
        "shots_count": 12,
        "following_count": 23,
        "created_at": "2012/05/10 11:23:50 -0400"
      },
      "created_at": "2014/02/17 10:28:18 -0500"
    },
    {
      "id": 1410254,
      "title": "The Times",
      "height": 300,
      "width": 400,
      "likes_count": 9,
      "comments_count": 1,
      "rebounds_count": 0,
      "url": "http://dribbble.com/shots/1410254-The-Times",
      "short_url": "http://drbl.in/kbCo",
      "views_count": 673,
      "rebound_source_id": null,
      "image_url": "http://d13yacurqjgara.cloudfront.net/users/595/screenshots/1410254/times.png",
      "image_teaser_url": "http://d13yacurqjgara.cloudfront.net/users/595/screenshots/1410254/times_teaser.png",
      "player": {
        "id": 595,
        "name": "Mark Otto",
        "location": "San Francisco, CA",
        "followers_count": 2850,
        "draftees_count": 11,
        "likes_count": 2706,
        "likes_received_count": 3634,
        "comments_count": 343,
        "comments_received_count": 660,
        "rebounds_count": 12,
        "rebounds_received_count": 17,
        "url": "http://dribbble.com/mdo",
        "avatar_url": "http://d13yacurqjgara.cloudfront.net/users/595/avatars/normal/avatar-shades.jpg?1351889195",
        "username": "mdo",
        "twitter_screen_name": "mdo",
        "website_url": "http://markdotto.com",
        "drafted_by_player_id": 35,
        "shots_count": 100,
        "following_count": 561,
        "created_at": "2010/01/19 13:06:34 -0500"
      },
      "created_at": "2014/02/06 05:07:24 -0500"
    },
    {
      "id": 1342314,
      "title": "Happenings",
      "height": 600,
      "width": 800,
      "likes_count": 11,
      "comments_count": 2,
      "rebounds_count": 0,
      "url": "http://dribbble.com/shots/1342314-Happenings",
      "short_url": "http://drbl.in/jCvM",
      "views_count": 243,
      "rebound_source_id": 1264568,
      "image_url": "http://d13yacurqjgara.cloudfront.net/users/334/screenshots/1342314/dribbble.png",
      "image_teaser_url": "http://d13yacurqjgara.cloudfront.net/users/334/screenshots/1342314/dribbble_teaser.png",
      "image_400_url": "http://d13yacurqjgara.cloudfront.net/users/334/screenshots/1342314/dribbble_1x.png",
      "player": {
        "id": 334,
        "name": "Bryan Veloso",
        "location": "Los Angeles, CA",
        "followers_count": 1174,
        "draftees_count": 20,
        "likes_count": 909,
        "likes_received_count": 2323,
        "comments_count": 376,
        "comments_received_count": 580,
        "rebounds_count": 27,
        "rebounds_received_count": 43,
        "url": "http://dribbble.com/bryan",
        "avatar_url": "http://d13yacurqjgara.cloudfront.net/users/334/avatars/original/74C32CFC-4D0F-4643-8CA0-E8CBC21956AC.jpeg?1325194036",
        "username": "bryan",
        "twitter_screen_name": "bryanveloso",
        "website_url": "http://avalonstar.com",
        "drafted_by_player_id": 71,
        "shots_count": 101,
        "following_count": 139,
        "created_at": "2009/12/17 12:42:50 -0500"
      },
      "created_at": "2013/12/10 18:57:44 -0500"
    },
    {
      "id": 1282488,
      "title": "Ghostbusters Gear",
      "height": 600,
      "width": 800,
      "likes_count": 774,
      "comments_count": 36,
      "rebounds_count": 0,
      "url": "http://dribbble.com/shots/1282488-Ghostbusters-Gear",
      "short_url": "http://drbl.in/jgpm",
      "views_count": 5668,
      "rebound_source_id": null,
      "image_url": "http://d13yacurqjgara.cloudfront.net/users/3460/screenshots/1282488/ghostbusters_gear.png",
      "image_teaser_url": "http://d13yacurqjgara.cloudfront.net/users/3460/screenshots/1282488/ghostbusters_gear_teaser.png",
      "image_400_url": "http://d13yacurqjgara.cloudfront.net/users/3460/screenshots/1282488/ghostbusters_gear_1x.png",
      "player": {
        "id": 3460,
        "name": "Ryan Putnam",
        "location": "San Francisco, CA",
        "followers_count": 21222,
        "draftees_count": 12,
        "likes_count": 7579,
        "likes_received_count": 92861,
        "comments_count": 911,
        "comments_received_count": 6559,
        "rebounds_count": 120,
        "rebounds_received_count": 163,
        "url": "http://dribbble.com/RypeArts",
        "avatar_url": "http://d13yacurqjgara.cloudfront.net/users/3460/avatars/normal/Ryan_R6-02.png?1354283408",
        "username": "RypeArts",
        "twitter_screen_name": "RypeArts",
        "website_url": "http://rypearts.com",
        "drafted_by_player_id": 431,
        "shots_count": 388,
        "following_count": 371,
        "created_at": "2010/07/16 08:48:16 -0400"
      },
      "created_at": "2013/10/22 12:51:15 -0400"
    },
    {
      "id": 1258777,
      "title": "Detroit Ham And Corned Beef Co Logos",
      "height": 600,
      "width": 800,
      "likes_count": 219,
      "comments_count": 16,
      "rebounds_count": 1,
      "url": "http://dribbble.com/shots/1258777-Detroit-Ham-And-Corned-Beef-Co-Logos",
      "short_url": "http://drbl.in/iXBn",
      "views_count": 2933,
      "rebound_source_id": 1256128,
      "image_url": "http://d13yacurqjgara.cloudfront.net/users/21071/screenshots/1258777/detroit-ham-and-corned-beef-co-logos.png",
      "image_teaser_url": "http://d13yacurqjgara.cloudfront.net/users/21071/screenshots/1258777/detroit-ham-and-corned-beef-co-logos_teaser.png",
      "image_400_url": "http://d13yacurqjgara.cloudfront.net/users/21071/screenshots/1258777/detroit-ham-and-corned-beef-co-logos_1x.png",
      "player": {
        "id": 21071,
        "name": "David Cran",
        "location": "Vancouver",
        "followers_count": 4143,
        "draftees_count": 6,
        "likes_count": 7080,
        "likes_received_count": 23761,
        "comments_count": 2142,
        "comments_received_count": 2658,
        "rebounds_count": 93,
        "rebounds_received_count": 92,
        "url": "http://dribbble.com/davidcran",
        "avatar_url": "http://d13yacurqjgara.cloudfront.net/users/21071/avatars/normal/daves-avatar-2.png?1349538587",
        "username": "davidcran",
        "twitter_screen_name": "DavidCran",
        "website_url": "http://www.davidcran.com",
        "drafted_by_player_id": 5146,
        "shots_count": 391,
        "following_count": 1067,
        "created_at": "2011/03/03 16:04:49 -0500"
      },
      "created_at": "2013/10/03 10:15:05 -0400"
    },
    {
      "id": 1105123,
      "title": "McFly Gear 1885",
      "height": 600,
      "width": 800,
      "likes_count": 550,
      "comments_count": 38,
      "rebounds_count": 0,
      "url": "http://dribbble.com/shots/1105123-McFly-Gear-1885",
      "short_url": "http://drbl.in/hSKt",
      "views_count": 4628,
      "rebound_source_id": 1089675,
      "image_url": "http://d13yacurqjgara.cloudfront.net/users/3460/screenshots/1105123/mcfly_gear_1885.png",
      "image_teaser_url": "http://d13yacurqjgara.cloudfront.net/users/3460/screenshots/1105123/mcfly_gear_1885_teaser.png",
      "image_400_url": "http://d13yacurqjgara.cloudfront.net/users/3460/screenshots/1105123/mcfly_gear_1885_1x.png",
      "player": {
        "id": 3460,
        "name": "Ryan Putnam",
        "location": "San Francisco, CA",
        "followers_count": 21222,
        "draftees_count": 12,
        "likes_count": 7579,
        "likes_received_count": 92861,
        "comments_count": 911,
        "comments_received_count": 6559,
        "rebounds_count": 120,
        "rebounds_received_count": 163,
        "url": "http://dribbble.com/RypeArts",
        "avatar_url": "http://d13yacurqjgara.cloudfront.net/users/3460/avatars/normal/Ryan_R6-02.png?1354283408",
        "username": "RypeArts",
        "twitter_screen_name": "RypeArts",
        "website_url": "http://rypearts.com",
        "drafted_by_player_id": 431,
        "shots_count": 388,
        "following_count": 371,
        "created_at": "2010/07/16 08:48:16 -0400"
      },
      "created_at": "2013/06/07 11:51:13 -0400"
    },
    {
      "id": 1100563,
      "title": "Giraffage",
      "height": 600,
      "width": 800,
      "likes_count": 105,
      "comments_count": 3,
      "rebounds_count": 0,
      "url": "http://dribbble.com/shots/1100563-Giraffage",
      "short_url": "http://drbl.in/hRaJ",
      "views_count": 1987,
      "rebound_source_id": 1060193,
      "image_url": "http://d13yacurqjgara.cloudfront.net/users/2014/screenshots/1100563/screen.png",
      "image_teaser_url": "http://d13yacurqjgara.cloudfront.net/users/2014/screenshots/1100563/screen_teaser.png",
      "image_400_url": "http://d13yacurqjgara.cloudfront.net/users/2014/screenshots/1100563/screen_1x.png",
      "player": {
        "id": 2014,
        "name": "Brent Jackson",
        "location": "New York City",
        "followers_count": 4542,
        "draftees_count": 8,
        "likes_count": 8029,
        "likes_received_count": 17173,
        "comments_count": 518,
        "comments_received_count": 1793,
        "rebounds_count": 106,
        "rebounds_received_count": 195,
        "url": "http://dribbble.com/jxnblk",
        "avatar_url": "http://d13yacurqjgara.cloudfront.net/users/2014/avatars/normal/Jxnblk-ShortHair-NoAlpha.png?1384220027",
        "username": "jxnblk",
        "twitter_screen_name": "jxnblk",
        "website_url": "http://jxnblk.com",
        "drafted_by_player_id": 170,
        "shots_count": 319,
        "following_count": 900,
        "created_at": "2010/04/26 12:35:36 -0400"
      },
      "created_at": "2013/06/04 18:01:21 -0400"
    },
    {
      "id": 942572,
      "title": "Mission Hill Avatar",
      "height": 300,
      "width": 400,
      "likes_count": 44,
      "comments_count": 16,
      "rebounds_count": 0,
      "url": "http://dribbble.com/shots/942572-Mission-Hill-Avatar",
      "short_url": "http://drbl.in/gKEu",
      "views_count": 310,
      "rebound_source_id": null,
      "image_url": "http://d13yacurqjgara.cloudfront.net/users/56226/screenshots/942572/screen_shot_2013-02-14_at_12.58.49_am.png",
      "image_teaser_url": "http://d13yacurqjgara.cloudfront.net/users/56226/screenshots/942572/screen_shot_2013-02-14_at_12.58.49_am_teaser.png",
      "player": {
        "id": 56226,
        "name": "Michael Anderson",
        "location": "Edmond, Ok",
        "followers_count": 2714,
        "draftees_count": 1,
        "likes_count": 154,
        "likes_received_count": 13729,
        "comments_count": 442,
        "comments_received_count": 1424,
        "rebounds_count": 8,
        "rebounds_received_count": 8,
        "url": "http://dribbble.com/Mikuloctopus",
        "avatar_url": "http://d13yacurqjgara.cloudfront.net/users/56226/avatars/normal/Screen_Shot_2013-08-08_at_4.18.33_PM.png?1375996732",
        "username": "Mikuloctopus",
        "twitter_screen_name": "mikuloctopus",
        "website_url": "http://mikuloctopus.tumblr.com/",
        "drafted_by_player_id": 13215,
        "shots_count": 236,
        "following_count": 119,
        "created_at": "2011/08/22 20:48:28 -0400"
      },
      "created_at": "2013/02/14 02:02:18 -0500"
    },
    {
      "id": 809876,
      "title": "Bebop",
      "height": 300,
      "width": 400,
      "likes_count": 102,
      "comments_count": 18,
      "rebounds_count": 0,
      "url": "http://dribbble.com/shots/809876-Bebop",
      "short_url": "http://drbl.in/fNAC",
      "views_count": 888,
      "rebound_source_id": null,
      "image_url": "http://d13yacurqjgara.cloudfront.net/users/56226/screenshots/809876/bebop.png",
      "image_teaser_url": "http://d13yacurqjgara.cloudfront.net/users/56226/screenshots/809876/bebop_teaser.png",
      "player": {
        "id": 56226,
        "name": "Michael Anderson",
        "location": "Edmond, Ok",
        "followers_count": 2714,
        "draftees_count": 1,
        "likes_count": 154,
        "likes_received_count": 13729,
        "comments_count": 442,
        "comments_received_count": 1424,
        "rebounds_count": 8,
        "rebounds_received_count": 8,
        "url": "http://dribbble.com/Mikuloctopus",
        "avatar_url": "http://d13yacurqjgara.cloudfront.net/users/56226/avatars/normal/Screen_Shot_2013-08-08_at_4.18.33_PM.png?1375996732",
        "username": "Mikuloctopus",
        "twitter_screen_name": "mikuloctopus",
        "website_url": "http://mikuloctopus.tumblr.com/",
        "drafted_by_player_id": 13215,
        "shots_count": 236,
        "following_count": 119,
        "created_at": "2011/08/22 20:48:28 -0400"
      },
      "created_at": "2012/11/11 16:09:07 -0500"
    },
    {
      "id": 777145,
      "title": "BenQ XL2420T",
      "height": 600,
      "width": 800,
      "likes_count": 19,
      "comments_count": 9,
      "rebounds_count": 0,
      "url": "http://dribbble.com/shots/777145-BenQ-XL2420T",
      "short_url": "http://drbl.in/fBvf",
      "views_count": 881,
      "rebound_source_id": null,
      "image_url": "http://d13yacurqjgara.cloudfront.net/users/334/screenshots/777145/dribbble_benq.png",
      "image_teaser_url": "http://d13yacurqjgara.cloudfront.net/users/334/screenshots/777145/dribbble_benq_teaser.png",
      "image_400_url": "http://d13yacurqjgara.cloudfront.net/users/334/screenshots/777145/dribbble_benq_1x.png",
      "player": {
        "id": 334,
        "name": "Bryan Veloso",
        "location": "Los Angeles, CA",
        "followers_count": 1174,
        "draftees_count": 20,
        "likes_count": 909,
        "likes_received_count": 2323,
        "comments_count": 376,
        "comments_received_count": 580,
        "rebounds_count": 27,
        "rebounds_received_count": 43,
        "url": "http://dribbble.com/bryan",
        "avatar_url": "http://d13yacurqjgara.cloudfront.net/users/334/avatars/original/74C32CFC-4D0F-4643-8CA0-E8CBC21956AC.jpeg?1325194036",
        "username": "bryan",
        "twitter_screen_name": "bryanveloso",
        "website_url": "http://avalonstar.com",
        "drafted_by_player_id": 71,
        "shots_count": 101,
        "following_count": 139,
        "created_at": "2009/12/17 12:42:50 -0500"
      },
      "created_at": "2012/10/19 00:01:07 -0400"
    },
    {
      "id": 756573,
      "title": "PyCarolinas logo",
      "height": 300,
      "width": 400,
      "likes_count": 10,
      "comments_count": 0,
      "rebounds_count": 1,
      "url": "http://dribbble.com/shots/756573-PyCarolinas-logo",
      "short_url": "http://drbl.in/ftPz",
      "views_count": 360,
      "rebound_source_id": null,
      "image_url": "http://d13yacurqjgara.cloudfront.net/users/145437/screenshots/756573/pycarolinas-logo.png",
      "image_teaser_url": "http://d13yacurqjgara.cloudfront.net/users/145437/screenshots/756573/pycarolinas-logo_teaser.png",
      "player": {
        "id": 145437,
        "name": "Julia Elman",
        "location": "North Carolina",
        "followers_count": 29,
        "draftees_count": 0,
        "likes_count": 60,
        "likes_received_count": 105,
        "comments_count": 11,
        "comments_received_count": 18,
        "rebounds_count": 1,
        "rebounds_received_count": 1,
        "url": "http://dribbble.com/juliaelman",
        "avatar_url": "http://d13yacurqjgara.cloudfront.net/users/145437/avatars/normal/julia-elman.jpg?1353293890",
        "username": "juliaelman",
        "twitter_screen_name": "juliaelman",
        "website_url": "http://juliaelman.com/",
        "drafted_by_player_id": 878,
        "shots_count": 12,
        "following_count": 23,
        "created_at": "2012/05/10 11:23:50 -0400"
      },
      "created_at": "2012/10/04 15:16:54 -0400"
    },
    {
      "id": 735180,
      "title": "Dropdown Menu",
      "height": 300,
      "width": 400,
      "likes_count": 236,
      "comments_count": 3,
      "rebounds_count": 0,
      "url": "http://dribbble.com/shots/735180-Dropdown-Menu",
      "short_url": "http://drbl.in/flUe",
      "views_count": 8591,
      "rebound_source_id": 720951,
      "image_url": "http://d13yacurqjgara.cloudfront.net/users/57127/screenshots/735180/dropdown-menu.jpg",
      "image_teaser_url": "http://d13yacurqjgara.cloudfront.net/users/57127/screenshots/735180/dropdown-menu_teaser.jpg",
      "player": {
        "id": 57127,
        "name": "Barthelemy Chalvet (via AgenceMe)",
        "location": "Paris",
        "followers_count": 10797,
        "draftees_count": 2,
        "likes_count": 571,
        "likes_received_count": 38911,
        "comments_count": 308,
        "comments_received_count": 1392,
        "rebounds_count": 55,
        "rebounds_received_count": 70,
        "url": "http://dribbble.com/BarthelemyChalvet",
        "avatar_url": "http://d13yacurqjgara.cloudfront.net/users/57127/avatars/normal/photo.png?1381482326",
        "username": "BarthelemyChalvet",
        "twitter_screen_name": "AgenceMe",
        "website_url": "http://www.agence-me.com",
        "drafted_by_player_id": 31675,
        "shots_count": 106,
        "following_count": 149,
        "created_at": "2011/08/25 09:18:46 -0400"
      },
      "created_at": "2012/09/18 21:04:54 -0400"
    },
    {
      "id": 665422,
      "title": "Tmnt finished",
      "height": 300,
      "width": 400,
      "likes_count": 37,
      "comments_count": 3,
      "rebounds_count": 0,
      "url": "http://dribbble.com/shots/665422-Tmnt-finished",
      "short_url": "http://drbl.in/eMeE",
      "views_count": 700,
      "rebound_source_id": null,
      "image_url": "http://d13yacurqjgara.cloudfront.net/users/56226/screenshots/665422/tmnt.png",
      "image_teaser_url": "http://d13yacurqjgara.cloudfront.net/users/56226/screenshots/665422/tmnt_teaser.png",
      "player": {
        "id": 56226,
        "name": "Michael Anderson",
        "location": "Edmond, Ok",
        "followers_count": 2714,
        "draftees_count": 1,
        "likes_count": 154,
        "likes_received_count": 13729,
        "comments_count": 442,
        "comments_received_count": 1424,
        "rebounds_count": 8,
        "rebounds_received_count": 8,
        "url": "http://dribbble.com/Mikuloctopus",
        "avatar_url": "http://d13yacurqjgara.cloudfront.net/users/56226/avatars/normal/Screen_Shot_2013-08-08_at_4.18.33_PM.png?1375996732",
        "username": "Mikuloctopus",
        "twitter_screen_name": "mikuloctopus",
        "website_url": "http://mikuloctopus.tumblr.com/",
        "drafted_by_player_id": 13215,
        "shots_count": 236,
        "following_count": 119,
        "created_at": "2011/08/22 20:48:28 -0400"
      },
      "created_at": "2012/07/28 14:04:38 -0400"
    },
    {
      "id": 712319,
      "title": "Mikey",
      "height": 300,
      "width": 400,
      "likes_count": 141,
      "comments_count": 11,
      "rebounds_count": 0,
      "url": "http://dribbble.com/shots/712319-Mikey",
      "short_url": "http://drbl.in/fdwx",
      "views_count": 1564,
      "rebound_source_id": null,
      "image_url": "http://d13yacurqjgara.cloudfront.net/users/56226/screenshots/712319/mikey.jpg",
      "image_teaser_url": "http://d13yacurqjgara.cloudfront.net/users/56226/screenshots/712319/mikey_teaser.jpg",
      "player": {
        "id": 56226,
        "name": "Michael Anderson",
        "location": "Edmond, Ok",
        "followers_count": 2714,
        "draftees_count": 1,
        "likes_count": 154,
        "likes_received_count": 13729,
        "comments_count": 442,
        "comments_received_count": 1424,
        "rebounds_count": 8,
        "rebounds_received_count": 8,
        "url": "http://dribbble.com/Mikuloctopus",
        "avatar_url": "http://d13yacurqjgara.cloudfront.net/users/56226/avatars/normal/Screen_Shot_2013-08-08_at_4.18.33_PM.png?1375996732",
        "username": "Mikuloctopus",
        "twitter_screen_name": "mikuloctopus",
        "website_url": "http://mikuloctopus.tumblr.com/",
        "drafted_by_player_id": 13215,
        "shots_count": 236,
        "following_count": 119,
        "created_at": "2011/08/22 20:48:28 -0400"
      },
      "created_at": "2012/09/01 14:32:13 -0400"
    }
  ]
}
